…
```
## [1] 2304
```

2. Devise a strategy for filling in all of the missing values in the dataset. The strategy does not need to be sophisticated. For example, you could use the mean/median for that day, or the mean for that 5-minute interval, etc.
Analyzing:

```r
Steps %>% group_by(date) %>% summarise(AreNA = sum(is.na(steps)), NotNA = sum(!is.na(steps)))
```

```
## # A tibble: 61 x 3
##    date       AreNA NotNA
##    <date>     <int> <int>
##  1 2012-10-01   288     0
##  2 2012-10-02     0   288
##  3 2012-10-03     0   288
##  4 2012-10-04     0   288
##  5 2012-10-05     0   288
##  6 2012-10-06     0   288
##  7 2012-10-07     0   288
##  8 2012-10-08   288     0
##  9 2012-10-09     0   288
## 10 2012-10-10     0   288
## # ... with 51 more rows
```
…
